cons1 bought Coffee(name='Brasil', price=7, acidity=5.09, roast_level='MEDIUM')
cons1 bought Coffee(name='Brasil', price=7, acidity=5.09, roast_level='MEDIUM')
cons1 bought Coffee(name='Brasil', price=7, acidity=5.09, roast_level='MEDIUM')
cons1 bought Coffee(name='Indonezia', price=1, acidity=5.05, roast_level='MEDIUM')
cons1 bought Coffee(name='Indonezia', price=1, acidity=5.05, roast_level='MEDIUM')
cons1 bought Tea(name='Cactus fig', price=3, type='Green')
cons1 bought Tea(name='Cactus fig', price=3, type='Green')
cons1 bought Coffee(name='Indonezia', price=1, acidity=5.05, roast_level='MEDIUM')
cons1 bought Coffee(name='Indonezia', price=1, acidity=5.05, roast_level='MEDIUM')
cons1 bought Tea(name='Cactus fig', price=3, type='Green')
cons1 bought Tea(name='Cactus fig', price=3, type='Green')
cons1 bought Tea(name='Cactus fig', price=3, type='Green')
cons1 bought Tea(name='Cactus fig', price=3, type='Green')
cons1 bought Tea(name='Cactus fig', price=3, type='Green')
cons1 bought Coffee(name='Ethiopia', price=10, acidity=5.09, roast_level='MEDIUM')
cons1 bought Coffee(name='Ethiopia', price=10, acidity=5.09, roast_level='MEDIUM')
cons1 bought Coffee(name='Ethiopia', price=10, acidity=5.09, roast_level='MEDIUM')
cons1 bought Coffee(name='Ethiopia', price=10, acidity=5.09, roast_level='MEDIUM')
cons1 bought Coffee(name='Ethiopia', price=10, acidity=5.09, roast_level='MEDIUM')
cons2 bought Tea(name='Cactus fig', price=3, type='Green')
cons2 bought Coffee(name='Indonezia', price=1, acidity=5.05, roast_level='MEDIUM')
cons2 bought Coffee(name='Indonezia', price=1, acidity=5.05, roast_level='MEDIUM')
cons2 bought Coffee(name='Indonezia', price=1, acidity=5.05, roast_level='MEDIUM')
cons2 bought Coffee(name='Indonezia', price=1, acidity=5.05, roast_level='MEDIUM')
cons2 bought Coffee(name='Indonezia', price=1, acidity=5.05, roast_level='MEDIUM')
cons2 bought Tea(name='Wild Cherry', price=4, type='Black')
cons2 bought Tea(name='Wild Cherry', price=4, type='Black')
cons2 bought Tea(name='Wild Cherry', price=4, type='Black')
cons2 bought Coffee(name='Ethiopia', price=10, acidity=5.09, roast_level='MEDIUM')
cons3 bought Coffee(name='Brasil', price=7, acidity=5.09, roast_level='MEDIUM')
cons3 bought Coffee(name='Brasil', price=7, acidity=5.09, roast_level='MEDIUM')
cons3 bought Coffee(name='Brasil', price=7, acidity=5.09, roast_level='MEDIUM')
cons3 bought Coffee(name='Brasil', price=7, acidity=5.09, roast_level='MEDIUM')
cons3 bought Coffee(name='Brasil', price=7, acidity=5.09, roast_level='MEDIUM')
cons3 bought Coffee(name='Indonezia', price=1, acidity=5.05, roast_level='MEDIUM')
cons3 bought Coffee(name='Indonezia', price=1, acidity=5.05, roast_level='MEDIUM')
cons3 bought Coffee(name='Indonezia', price=1, acidity=5.05, roast_level='MEDIUM')
cons3 bought Coffee(name='Indonezia', price=1, acidity=5.05, roast_level='MEDIUM')
cons3 bought Tea(name='Wild Cherry', price=4, type='Black')
cons3 bought Tea(name='Wild Cherry', price=4, type='Black')
cons3 bought Tea(name='Wild Cherry', price=4, type='Black')
cons3 bought Coffee(name='Brasil', price=7, acidity=5.09, roast_level='MEDIUM')
cons3 bought Coffee(name='Brasil', price=7, acidity=5.09, roast_level='MEDIUM')
cons3 bought Coffee(name='Brasil', price=7, acidity=5.09, roast_level='MEDIUM')
cons3 bought Coffee(name='Brasil', price=7, acidity=5.09, roast_level='MEDIUM')
cons3 bought Tea(name='Cactus fig', price=3, type='Green')
cons3 bought Tea(name='Cactus fig', price=3, type='Green')
cons3 bought Tea(name='Cactus fig', price=3, type='Green')
cons3 bought Tea(name='Cactus fig', price=3, type='Green')
cons3 bought Tea(name='Cactus fig', price=3, type='Green')
cons3 bought Coffee(name='Indonezia', price=1, acidity=5.05, roast_level='MEDIUM')
cons3 bought Coffee(name='Indonezia', price=1, acidity=5.05, roast_level='MEDIUM')
cons3 bought Coffee(name='Indonezia', price=1, acidity=5.05, roast_level='MEDIUM')
cons3 bought Coffee(name='Brasil', price=7, acidity=5.09, roast_level='MEDIUM')
cons3 bought Coffee(name='Brasil', price=7, acidity=5.09, roast_level='MEDIUM')
cons3 bought Coffee(name='Brasil', price=7, acidity=5.09, roast_level='MEDIUM')
cons3 bought Coffee(name='Brasil', price=7, acidity=5.09, roast_level='MEDIUM')
cons3 bought Coffee(name='Brasil', price=7, acidity=5.09, roast_level='MEDIUM')
cons3 bought Tea(name='Cactus fig', price=3, type='Green')
cons3 bought Tea(name='Cactus fig', price=3, type='Green')
cons3 bought Tea(name='Cactus fig', price=3, type='Green')
cons4 bought Coffee(name='Indonezia', price=1, acidity=5.05, roast_level='MEDIUM')
cons4 bought Coffee(name='Indonezia', price=1, acidity=5.05, roast_level='MEDIUM')
cons4 bought Coffee(name='Indonezia', price=1, acidity=5.05, roast_level='MEDIUM')
cons4 bought Coffee(name='Indonezia', price=1, acidity=5.05, roast_level='MEDIUM')
cons4 bought Tea(name='Wild Cherry', price=4, type='Black')
cons4 bought Coffee(name='Ethiopia', price=10, acidity=5.09, roast_level='MEDIUM')
cons4 bought Coffee(name='Ethiopia', price=10, acidity=5.09, roast_level='MEDIUM')
cons4 bought Coffee(name='Ethiopia', price=10, acidity=5.09, roast_level='MEDIUM')
cons4 bought Coffee(name='Ethiopia', price=10, acidity=5.09, roast_level='MEDIUM')
cons4 bought Coffee(name='Ethiopia', price=10, acidity=5.09, roast_level='MEDIUM')
cons4 bought Coffee(name='Indonezia', price=1, acidity=5.05, roast_level='MEDIUM')
cons4 bought Coffee(name='Indonezia', price=1, acidity=5.05, roast_level='MEDIUM')
cons4 bought Coffee(name='Indonezia', price=1, acidity=5.05, roast_level='MEDIUM')
cons4 bought Tea(name='Cactus fig', price=3, type='Green')
cons4 bought Tea(name='Cactus fig', price=3, type='Green')
cons4 bought Tea(name='Cactus fig', price=3, type='Green')
cons4 bought Tea(name='Cactus fig', price=3, type='Green')
cons4 bought Coffee(name='Ethiopia', price=10, acidity=5.09, roast_level='MEDIUM')
cons4 bought Coffee(name='Ethiopia', price=10, acidity=5.09, roast_level='MEDIUM')
cons4 bought Coffee(name='Ethiopia', price=10, acidity=5.09, roast_level='MEDIUM')
cons4 bought Coffee(name='Ethiopia', price=10, acidity=5.09, roast_level='MEDIUM')
cons4 bought Coffee(name='Ethiopia', price=10, acidity=5.09, roast_level='MEDIUM')
cons4 bought Tea(name='Wild Cherry', price=4, type='Black')
cons4 bought Tea(name='Cactus fig', price=3, type='Green')
cons4 bought Coffee(name='Ethiopia', price=10, acidity=5.09, roast_level='MEDIUM')
cons4 bought Coffee(name='Ethiopia', price=10, acidity=5.09, roast_level='MEDIUM')
cons4 bought Coffee(name='Ethiopia', price=10, acidity=5.09, roast_level='MEDIUM')
cons4 bought Coffee(name='Ethiopia', price=10, acidity=5.09, roast_level='MEDIUM')
cons4 bought Coffee(name='Ethiopia', price=10, acidity=5.09, roast_level='MEDIUM')
cons5 bought Coffee(name='Indonezia', price=1, acidity=5.05, roast_level='MEDIUM')
cons5 bought Coffee(name='Brasil', price=7, acidity=5.09, roast_level='MEDIUM')
cons5 bought Coffee(name='Brasil', price=7, acidity=5.09, roast_level='MEDIUM')
cons5 bought Coffee(name='Brasil', price=7, acidity=5.09, roast_level='MEDIUM')
cons5 bought Tea(name='Wild Cherry', price=4, type='Black')
cons6 bought Tea(name='Wild Cherry', price=4, type='Black')
cons6 bought Tea(name='Wild Cherry', price=4, type='Black')
cons6 bought Tea(name='Wild Cherry', price=4, type='Black')
cons6 bought Tea(name='Wild Cherry', price=4, type='Black')
cons6 bought Coffee(name='Indonezia', price=1, acidity=5.05, roast_level='MEDIUM')
cons6 bought Coffee(name='Indonezia', price=1, acidity=5.05, roast_level='MEDIUM')
cons6 bought Coffee(name='Indonezia', price=1, acidity=5.05, roast_level='MEDIUM')
cons6 bought Coffee(name='Indonezia', price=1, acidity=5.05, roast_level='MEDIUM')
cons6 bought Coffee(name='Indonezia', price=1, acidity=5.05, roast_level='MEDIUM')
cons6 bought Coffee(name='Indonezia', price=1, acidity=5.05, roast_level='MEDIUM')
cons6 bought Tea(name='Wild Cherry', price=4, type='Black')
cons6 bought Tea(name='Wild Cherry', price=4, type='Black')
cons6 bought Tea(name='Wild Cherry', price=4, type='Black')
cons6 bought Coffee(name='Ethiopia', price=10, acidity=5.09, roast_level='MEDIUM')
cons6 bought Coffee(name='Indonezia', price=1, acidity=5.05, roast_level='MEDIUM')
cons6 bought Coffee(name='Indonezia', price=1, acidity=5.05, roast_level='MEDIUM')
cons6 bought Coffee(name='Indonezia', price=1, acidity=5.05, roast_level='MEDIUM')
cons6 bought Coffee(name='Indonezia', price=1, acidity=5.05, roast_level='MEDIUM')
cons6 bought Coffee(name='Indonezia', price=1, acidity=5.05, roast_level='MEDIUM')
cons6 bought Tea(name='Cactus fig', price=3, type='Green')
cons7 bought Coffee(name='Indonezia', price=1, acidity=5.05, roast_level='MEDIUM')
cons7 bought Coffee(name='Ethiopia', price=10, acidity=5.09, roast_level='MEDIUM')
cons7 bought Coffee(name='Ethiopia', price=10, acidity=5.09, roast_level='MEDIUM')
cons7 bought Coffee(name='Ethiopia', price=10, acidity=5.09, roast_level='MEDIUM')
cons7 bought Coffee(name='Brasil', price=7, acidity=5.09, roast_level='MEDIUM')
cons7 bought Coffee(name='Indonezia', price=1, acidity=5.05, roast_level='MEDIUM')
cons7 bought Tea(name='Cactus fig', price=3, type='Green')
cons7 bought Tea(name='Cactus fig', price=3, type='Green')
cons7 bought Tea(name='Cactus fig', price=3, type='Green')
cons7 bought Tea(name='Wild Cherry', price=4, type='Black')
cons7 bought Tea(name='Wild Cherry', price=4, type='Black')
cons7 bought Tea(name='Wild Cherry', price=4, type='Black')
cons7 bought Tea(name='Wild Cherry', price=4, type='Black')
cons7 bought Tea(name='Wild Cherry', price=4, type='Black')
cons7 bought Tea(name='Cactus fig', price=3, type='Green')
cons7 bought Coffee(name='Brasil', price=7, acidity=5.09, roast_level='MEDIUM')
cons7 bought Coffee(name='Brasil', price=7, acidity=5.09, roast_level='MEDIUM')
cons8 bought Coffee(name='Ethiopia', price=10, acidity=5.09, roast_level='MEDIUM')
cons8 bought Coffee(name='Ethiopia', price=10, acidity=5.09, roast_level='MEDIUM')
cons8 bought Coffee(name='Ethiopia', price=10, acidity=5.09, roast_level='MEDIUM')
cons8 bought Tea(name='Wild Cherry', price=4, type='Black')
cons8 bought Tea(name='Wild Cherry', price=4, type='Black')
cons8 bought Tea(name='Wild Cherry', price=4, type='Black')
cons8 bought Tea(name='Cactus fig', price=3, type='Green')
cons8 bought Tea(name='Cactus fig', price=3, type='Green')
cons8 bought Coffee(name='Indonezia', price=1, acidity=5.05, roast_level='MEDIUM')
cons8 bought Coffee(name='Indonezia', price=1, acidity=5.05, roast_level='MEDIUM')
cons8 bought Coffee(name='Indonezia', price=1, acidity=5.05, roast_level='MEDIUM')
cons8 bought Coffee(name='Indonezia', price=1, acidity=5.05, roast_level='MEDIUM')
cons8 bought Tea(name='Cactus fig', price=3, type='Green')
cons8 bought Coffee(name='Indonezia', price=1, acidity=5.05, roast_level='MEDIUM')
cons9 bought Tea(name='Cactus fig', price=3, type='Green')
cons9 bought Tea(name='Cactus fig', price=3, type='Green')
cons9 bought Tea(name='Cactus fig', price=3, type='Green')
cons9 bought Tea(name='Cactus fig', price=3, type='Green')
cons9 bought Coffee(name='Brasil', price=7, acidity=5.09, roast_level='MEDIUM')
cons9 bought Coffee(name='Brasil', price=7, acidity=5.09, roast_level='MEDIUM')
cons10 bought Tea(name='Cactus fig', price=3, type='Green')
cons10 bought Tea(name='Cactus fig', price=3, type='Green')
cons10 bought Tea(name='Cactus fig', price=3, type='Green')
cons10 bought Tea(name='Cactus fig', price=3, type='Green')
cons10 bought Coffee(name='Ethiopia', price=10, acidity=5.09, roast_level='MEDIUM')
cons10 bought Coffee(name='Ethiopia', price=10, acidity=5.09, roast_level='MEDIUM')
cons10 bought Coffee(name='Ethiopia', price=10, acidity=5.09, roast_level='MEDIUM')
cons10 bought Coffee(name='Ethiopia', price=10, acidity=5.09, roast_level='MEDIUM')
cons11 bought Coffee(name='Indonezia', price=1, acidity=5.05, roast_level='MEDIUM')
cons11 bought Coffee(name='Indonezia', price=1, acidity=5.05, roast_level='MEDIUM')
cons11 bought Coffee(name='Indonezia', price=1, acidity=5.05, roast_level='MEDIUM')
cons11 bought Coffee(name='Indonezia', price=1, acidity=5.05, roast_level='MEDIUM')
cons11 bought Coffee(name='Ethiopia', price=10, acidity=5.09, roast_level='MEDIUM')
cons11 bought Coffee(name='Brasil', price=7, acidity=5.09, roast_level='MEDIUM')
cons11 bought Coffee(name='Brasil', price=7, acidity=5.09, roast_level='MEDIUM')
cons12 bought Tea(name='Cactus fig', price=3, type='Green')
cons12 bought Tea(name='Wild Cherry', price=4, type='Black')
cons12 bought Tea(name='Wild Cherry', price=4, type='Black')
cons12 bought Tea(name='Wild Cherry', price=4, type='Black')
cons12 bought Tea(name='Cactus fig', price=3, type='Green')
cons12 bought Tea(name='Cactus fig', price=3, type='Green')
cons12 bought Coffee(name='Indonezia', price=1, acidity=5.05, roast_level='MEDIUM')
cons12 bought Coffee(name='Indonezia', price=1, acidity=5.05, roast_level='MEDIUM')
cons12 bought Coffee(name='Indonezia', price=1, acidity=5.05, roast_level='MEDIUM')
cons12 bought Coffee(name='Ethiopia', price=10, acidity=5.09, roast_level='MEDIUM')
cons12 bought Coffee(name='Ethiopia', price=10, acidity=5.09, roast_level='MEDIUM')
cons12 bought Coffee(name='Ethiopia', price=10, acidity=5.09, roast_level='MEDIUM')
cons12 bought Tea(name='Wild Cherry', price=4, type='Black')
cons12 bought Coffee(name='Brasil', price=7, acidity=5.09, roast_level='MEDIUM')
cons12 bought Coffee(name='Brasil', price=7, acidity=5.09, roast_level='MEDIUM')
cons12 bought Coffee(name='Brasil', price=7, acidity=5.09, roast_level='MEDIUM')
cons12 bought Coffee(name='Brasil', price=7, acidity=5.09, roast_level='MEDIUM')
cons12 bought Coffee(name='Brasil', price=7, acidity=5.09, roast_level='MEDIUM')
cons12 bought Tea(name='Wild Cherry', price=4, type='Black')
cons12 bought Tea(name='Wild Cherry', price=4, type='Black')
cons14 bought Tea(name='Cactus fig', price=3, type='Green')
cons14 bought Tea(name='Cactus fig', price=3, type='Green')
cons14 bought Tea(name='Cactus fig', price=3, type='Green')
cons14 bought Tea(name='Cactus fig', price=3, type='Green')
cons14 bought Tea(name='Cactus fig', price=3, type='Green')
cons15 bought Tea(name='Cactus fig', price=3, type='Green')
cons15 bought Tea(name='Cactus fig', price=3, type='Green')
cons15 bought Tea(name='Cactus fig', price=3, type='Green')
cons15 bought Tea(name='Cactus fig', price=3, type='Green')
cons15 bought Tea(name='Wild Cherry', price=4, type='Black')
cons15 bought Tea(name='Wild Cherry', price=4, type='Black')
cons15 bought Tea(name='Wild Cherry', price=4, type='Black')
cons15 bought Tea(name='Wild Cherry', price=4, type='Black')
cons16 bought Tea(name='Wild Cherry', price=4, type='Black')
cons16 bought Tea(name='Cactus fig', price=3, type='Green')
cons16 bought Tea(name='Cactus fig', price=3, type='Green')
cons16 bought Coffee(name='Ethiopia', price=10, acidity=5.09, roast_level='MEDIUM')
cons16 bought Coffee(name='Brasil', price=7, acidity=5.09, roast_level='MEDIUM')
cons16 bought Coffee(name='Brasil', price=7, acidity=5.09, roast_level='MEDIUM')
cons16 bought Coffee(name='Brasil', price=7, acidity=5.09, roast_level='MEDIUM')
cons16 bought Coffee(name='Brasil', price=7, acidity=5.09, roast_level='MEDIUM')
cons16 bought Coffee(name='Brasil', price=7, acidity=5.09, roast_level='MEDIUM')
cons16 bought Tea(name='Wild Cherry', price=4, type='Black')
cons17 bought Tea(name='Cactus fig', price=3, type='Green')
cons17 bought Tea(name='Cactus fig', price=3, type='Green')
cons17 bought Tea(name='Cactus fig', price=3, type='Green')
cons17 bought Tea(name='Cactus fig', price=3, type='Green')
cons17 bought Tea(name='Wild Cherry', price=4, type='Black')
cons17 bought Tea(name='Wild Cherry', price=4, type='Black')
cons17 bought Tea(name='Wild Cherry', price=4, type='Black')
cons17 bought Tea(name='Wild Cherry', price=4, type='Black')
cons17 bought Coffee(name='Brasil', price=7, acidity=5.09, roast_level='MEDIUM')
cons31 bought Coffee(name='Brasil', price=7, acidity=5.09, roast_level='MEDIUM')
cons31 bought Coffee(name='Brasil', price=7, acidity=5.09, roast_level='MEDIUM')
cons50 bought Coffee(name='Ethiopia', price=10, acidity=5.09, roast_level='MEDIUM')
cons50 bought Coffee(name='Ethiopia', price=10, acidity=5.09, roast_level='MEDIUM')
cons21 bought Tea(name='Wild Cherry', price=4, type='Black')
cons21 bought Tea(name='Wild Cherry', price=4, type='Black')
cons21 bought Tea(name='Wild Cherry', price=4, type='Black')
cons21 bought Tea(name='Cactus fig', price=3, type='Green')
cons30 bought Tea(name='Cactus fig', price=3, type='Green')
cons30 bought Tea(name='Cactus fig', price=3, type='Green')
cons30 bought Tea(name='Cactus fig', price=3, type='Green')
cons30 bought Tea(name='Wild Cherry', price=4, type='Black')
cons30 bought Tea(name='Wild Cherry', price=4, type='Black')
cons30 bought Tea(name='Wild Cherry', price=4, type='Black')
cons30 bought Coffee(name='Brasil', price=7, acidity=5.09, roast_level='MEDIUM')
cons30 bought Coffee(name='Brasil', price=7, acidity=5.09, roast_level='MEDIUM')
cons30 bought Coffee(name='Brasil', price=7, acidity=5.09, roast_level='MEDIUM')
cons30 bought Coffee(name='Brasil', price=7, acidity=5.09, roast_level='MEDIUM')
cons30 bought Coffee(name='Brasil', price=7, acidity=5.09, roast_level='MEDIUM')
cons40 bought Coffee(name='Ethiopia', price=10, acidity=5.09, roast_level='MEDIUM')
cons40 bought Coffee(name='Ethiopia', price=10, acidity=5.09, roast_level='MEDIUM')
cons40 bought Coffee(name='Ethiopia', price=10, acidity=5.09, roast_level='MEDIUM')
cons40 bought Coffee(name='Ethiopia', price=10, acidity=5.09, roast_level='MEDIUM')
cons40 bought Coffee(name='Ethiopia', price=10, acidity=5.09, roast_level='MEDIUM')
cons40 bought Coffee(name='Ethiopia', price=10, acidity=5.09, roast_level='MEDIUM')
cons40 bought Coffee(name='Ethiopia', price=10, acidity=5.09, roast_level='MEDIUM')
cons40 bought Coffee(name='Ethiopia', price=10, acidity=5.09, roast_level='MEDIUM')
cons40 bought Coffee(name='Ethiopia', price=10, acidity=5.09, roast_level='MEDIUM')
cons40 bought Tea(name='Cactus fig', price=3, type='Green')
cons40 bought Tea(name='Cactus fig', price=3, type='Green')
cons40 bought Tea(name='Cactus fig', price=3, type='Green')
cons40 bought Tea(name='Cactus fig', price=3, type='Green')
cons45 bought Coffee(name='Ethiopia', price=10, acidity=5.09, roast_level='MEDIUM')
cons45 bought Coffee(name='Ethiopia', price=10, acidity=5.09, roast_level='MEDIUM')
cons45 bought Tea(name='Cactus fig', price=3, type='Green')
cons45 bought Tea(name='Cactus fig', price=3, type='Green')
cons45 bought Tea(name='Cactus fig', price=3, type='Green')
cons45 bought Tea(name='Cactus fig', price=3, type='Green')
cons45 bought Coffee(name='Brasil', price=7, acidity=5.09, roast_level='MEDIUM')
cons45 bought Coffee(name='Brasil', price=7, acidity=5.09, roast_level='MEDIUM')
cons45 bought Tea(name='Cactus fig', price=3, type='Green')
cons45 bought Tea(name='Cactus fig', price=3, type='Green')
cons45 bought Tea(name='Cactus fig', price=3, type='Green')
cons45 bought Tea(name='Wild Cherry', price=4, type='Black')
cons45 bought Coffee(name='Brasil', price=7, acidity=5.09, roast_level='MEDIUM')
cons45 bought Coffee(name='Brasil', price=7, acidity=5.09, roast_level='MEDIUM')
cons45 bought Coffee(name='Brasil', price=7, acidity=5.09, roast_level='MEDIUM')
cons45 bought Coffee(name='Brasil', price=7, acidity=5.09, roast_level='MEDIUM')
cons45 bought Coffee(name='Brasil', price=7, acidity=5.09, roast_level='MEDIUM')
cons45 bought Coffee(name='Brasil', price=7, acidity=5.09, roast_level='MEDIUM')
cons45 bought Coffee(name='Brasil', price=7, acidity=5.09, roast_level='MEDIUM')
cons45 bought Coffee(name='Brasil', price=7, acidity=5.09, roast_level='MEDIUM')
cons45 bought Tea(name='Cactus fig', price=3, type='Green')
cons45 bought Tea(name='Cactus fig', price=3, type='Green')
cons45 bought Tea(name='Cactus fig', price=3, type='Green')
cons45 bought Tea(name='Cactus fig', price=3, type='Green')
cons45 bought Coffee(name='Brasil', price=7, acidity=5.09, roast_level='MEDIUM')
cons45 bought Coffee(name='Brasil', price=7, acidity=5.09, roast_level='MEDIUM')
cons45 bought Coffee(name='Brasil', price=7, acidity=5.09, roast_level='MEDIUM')
cons45 bought Coffee(name='Brasil', price=7, acidity=5.09, roast_level='MEDIUM')
cons45 bought Tea(name='Wild Cherry', price=4, type='Black')
cons38 bought Tea(name='Wild Cherry', price=4, type='Black')
cons38 bought Tea(name='Wild Cherry', price=4, type='Black')
cons38 bought Tea(name='Wild Cherry', price=4, type='Black')
cons38 bought Coffee(name='Indonezia', price=1, acidity=5.05, roast_level='MEDIUM')
cons38 bought Coffee(name='Indonezia', price=1, acidity=5.05, roast_level='MEDIUM')
cons38 bought Coffee(name='Indonezia', price=1, acidity=5.05, roast_level='MEDIUM')
cons38 bought Coffee(name='Indonezia', price=1, acidity=5.05, roast_level='MEDIUM')
cons38 bought Coffee(name='Indonezia', price=1, acidity=5.05, roast_level='MEDIUM')
cons38 bought Tea(name='Wild Cherry', price=4, type='Black')
cons38 bought Tea(name='Wild Cherry', price=4, type='Black')
cons37 bought Coffee(name='Ethiopia', price=10, acidity=5.09, roast_level='MEDIUM')
cons37 bought Coffee(name='Ethiopia', price=10, acidity=5.09, roast_level='MEDIUM')
cons37 bought Tea(name='Cactus fig', price=3, type='Green')
cons37 bought Tea(name='Cactus fig', price=3, type='Green')
cons37 bought Tea(name='Cactus fig', price=3, type='Green')
cons25 bought Tea(name='Wild Cherry', price=4, type='Black')
cons25 bought Tea(name='Wild Cherry', price=4, type='Black')
cons25 bought Tea(name='Wild Cherry', price=4, type='Black')
cons25 bought Tea(name='Wild Cherry', price=4, type='Black')
cons29 bought Tea(name='Cactus fig', price=3, type='Green')
cons29 bought Tea(name='Cactus fig', price=3, type='Green')
cons29 bought Coffee(name='Ethiopia', price=10, acidity=5.09, roast_level='MEDIUM')
cons29 bought Coffee(name='Ethiopia', price=10, acidity=5.09, roast_level='MEDIUM')
cons29 bought Coffee(name='Brasil', price=7, acidity=5.09, roast_level='MEDIUM')
cons29 bought Coffee(name='Brasil', price=7, acidity=5.09, roast_level='MEDIUM')
cons29 bought Coffee(name='Brasil', price=7, acidity=5.09, roast_level='MEDIUM')
cons29 bought Coffee(name='Brasil', price=7, acidity=5.09, roast_level='MEDIUM')
cons29 bought Tea(name='Cactus fig', price=3, type='Green')
cons29 bought Tea(name='Cactus fig', price=3, type='Green')
cons29 bought Coffee(name='Brasil', price=7, acidity=5.09, roast_level='MEDIUM')
cons29 bought Coffee(name='Brasil', price=7, acidity=5.09, roast_level='MEDIUM')
cons29 bought Coffee(name='Indonezia', price=1, acidity=5.05, roast_level='MEDIUM')
cons29 bought Coffee(name='Indonezia', price=1, acidity=5.05, roast_level='MEDIUM')
cons29 bought Coffee(name='Indonezia', price=1, acidity=5.05, roast_level='MEDIUM')
cons29 bought Coffee(name='Brasil', price=7, acidity=5.09, roast_level='MEDIUM')
cons29 bought Coffee(name='Ethiopia', price=10, acidity=5.09, roast_level='MEDIUM')
cons29 bought Coffee(name='Ethiopia', price=10, acidity=5.09, roast_level='MEDIUM')
cons29 bought Coffee(name='Ethiopia', price=10, acidity=5.09, roast_level='MEDIUM')
cons29 bought Coffee(name='Ethiopia', price=10, acidity=5.09, roast_level='MEDIUM')
cons29 bought Coffee(name='Ethiopia', price=10, acidity=5.09, roast_level='MEDIUM')
cons29 bought Tea(name='Wild Cherry', price=4, type='Black')
cons30 bought Coffee(name='Indonezia', price=1, acidity=5.05, roast_level='MEDIUM')
cons30 bought Coffee(name='Brasil', price=7, acidity=5.09, roast_level='MEDIUM')
cons30 bought Coffee(name='Brasil', price=7, acidity=5.09, roast_level='MEDIUM')
cons30 bought Coffee(name='Brasil', price=7, acidity=5.09, roast_level='MEDIUM')
cons30 bought Coffee(name='Brasil', price=7, acidity=5.09, roast_level='MEDIUM')
cons30 bought Tea(name='Cactus fig', price=3, type='Green')
cons30 bought Tea(name='Cactus fig', price=3, type='Green')
cons30 bought Coffee(name='Brasil', price=7, acidity=5.09, roast_level='MEDIUM')
cons30 bought Coffee(name='Brasil', price=7, acidity=5.09, roast_level='MEDIUM')
cons30 bought Coffee(name='Brasil', price=7, acidity=5.09, roast_level='MEDIUM')
cons30 bought Tea(name='Wild Cherry', price=4, type='Black')
cons30 bought Tea(name='Wild Cherry', price=4, type='Black')
cons30 bought Tea(name='Wild Cherry', price=4, type='Black')
cons30 bought Tea(name='Wild Cherry', price=4, type='Black')
cons30 bought Tea(name='Wild Cherry', price=4, type='Black')
cons30 bought Coffee(name='Ethiopia', price=10, acidity=5.09, roast_level='MEDIUM')
cons30 bought Coffee(name='Ethiopia', price=10, acidity=5.09, roast_level='MEDIUM')
cons30 bought Coffee(name='Ethiopia', price=10, acidity=5.09, roast_level='MEDIUM')cons32 bought Tea(name='Wild Cherry', price=4, type='Black')
cons32 bought Coffee(name='Indonezia', price=1, acidity=5.05, roast_level='MEDIUM')
cons32 bought Coffee(name='Indonezia', price=1, acidity=5.05, roast_level='MEDIUM')
cons32 bought Coffee(name='Indonezia', price=1, acidity=5.05, roast_level='MEDIUM')
cons32 bought Coffee(name='Indonezia', price=1, acidity=5.05, roast_level='MEDIUM')
cons32 bought Coffee(name='Indonezia', price=1, acidity=5.05, roast_level='MEDIUM')
cons32 bought Tea(name='Cactus fig', price=3, type='Green')
cons32 bought Tea(name='Cactus fig', price=3, type='Green')
cons32 bought Tea(name='Cactus fig', price=3, type='Green')
cons32 bought Tea(name='Cactus fig', price=3, type='Green')
cons32 bought Tea(name='Cactus fig', price=3, type='Green')
cons32 bought Tea(name='Cactus fig', price=3, type='Green')
cons32 bought Tea(name='Cactus fig', price=3, type='Green')
cons32 bought Coffee(name='Ethiopia', price=10, acidity=5.09, roast_level='MEDIUM')
cons32 bought Coffee(name='Ethiopia', price=10, acidity=5.09, roast_level='MEDIUM')
cons32 bought Coffee(name='Ethiopia', price=10, acidity=5.09, roast_level='MEDIUM')
cons32 bought Coffee(name='Ethiopia', price=10, acidity=5.09, roast_level='MEDIUM')
cons32 bought Coffee(name='Ethiopia', price=10, acidity=5.09, roast_level='MEDIUM')

cons30 bought Coffee(name='Ethiopia', price=10, acidity=5.09, roast_level='MEDIUM')
cons30 bought Tea(name='Cactus fig', price=3, type='Green')
cons30 bought Tea(name='Cactus fig', price=3, type='Green')
cons30 bought Tea(name='Cactus fig', price=3, type='Green')
cons30 bought Tea(name='Wild Cherry', price=4, type='Black')
cons30 bought Tea(name='Wild Cherry', price=4, type='Black')
cons30 bought Tea(name='Wild Cherry', price=4, type='Black')
cons20 bought Coffee(name='Indonezia', price=1, acidity=5.05, roast_level='MEDIUM')
cons20 bought Coffee(name='Ethiopia', price=10, acidity=5.09, roast_level='MEDIUM')
cons20 bought Coffee(name='Ethiopia', price=10, acidity=5.09, roast_level='MEDIUM')
cons20 bought Coffee(name='Ethiopia', price=10, acidity=5.09, roast_level='MEDIUM')
cons20 bought Coffee(name='Ethiopia', price=10, acidity=5.09, roast_level='MEDIUM')
cons20 bought Coffee(name='Ethiopia', price=10, acidity=5.09, roast_level='MEDIUM')
cons20 bought Coffee(name='Brasil', price=7, acidity=5.09, roast_level='MEDIUM')
cons20 bought Coffee(name='Brasil', price=7, acidity=5.09, roast_level='MEDIUM')
cons27 bought Coffee(name='Ethiopia', price=10, acidity=5.09, roast_level='MEDIUM')
cons27 bought Coffee(name='Ethiopia', price=10, acidity=5.09, roast_level='MEDIUM')
cons27 bought Coffee(name='Ethiopia', price=10, acidity=5.09, roast_level='MEDIUM')
cons27 bought Tea(name='Cactus fig', price=3, type='Green')
cons27 bought Tea(name='Cactus fig', price=3, type='Green')
cons27 bought Tea(name='Cactus fig', price=3, type='Green')
cons27 bought Tea(name='Cactus fig', price=3, type='Green')
cons27 bought Tea(name='Cactus fig', price=3, type='Green')
cons27 bought Coffee(name='Brasil', price=7, acidity=5.09, roast_level='MEDIUM')
cons27 bought Coffee(name='Brasil', price=7, acidity=5.09, roast_level='MEDIUM')
cons35 bought Tea(name='Cactus fig', price=3, type='Green')
cons35 bought Tea(name='Cactus fig', price=3, type='Green')
cons35 bought Tea(name='Cactus fig', price=3, type='Green')
cons35 bought Tea(name='Cactus fig', price=3, type='Green')
cons35 bought Coffee(name='Ethiopia', price=10, acidity=5.09, roast_level='MEDIUM')
cons35 bought Coffee(name='Ethiopia', price=10, acidity=5.09, roast_level='MEDIUM')
cons35 bought Coffee(name='Ethiopia', price=10, acidity=5.09, roast_level='MEDIUM')
cons35 bought Coffee(name='Brasil', price=7, acidity=5.09, roast_level='MEDIUM')
cons33 bought Tea(name='Cactus fig', price=3, type='Green')
cons33 bought Tea(name='Cactus fig', price=3, type='Green')
cons33 bought Coffee(name='Ethiopia', price=10, acidity=5.09, roast_level='MEDIUM')
cons33 bought Coffee(name='Brasil', price=7, acidity=5.09, roast_level='MEDIUM')
cons33 bought Tea(name='Wild Cherry', price=4, type='Black')
cons33 bought Tea(name='Wild Cherry', price=4, type='Black')
cons26 bought Coffee(name='Indonezia', price=1, acidity=5.05, roast_level='MEDIUM')
cons26 bought Coffee(name='Brasil', price=7, acidity=5.09, roast_level='MEDIUM')
cons26 bought Coffee(name='Brasil', price=7, acidity=5.09, roast_level='MEDIUM')
cons26 bought Coffee(name='Ethiopia', price=10, acidity=5.09, roast_level='MEDIUM')
cons26 bought Coffee(name='Ethiopia', price=10, acidity=5.09, roast_level='MEDIUM')
cons26 bought Coffee(name='Ethiopia', price=10, acidity=5.09, roast_level='MEDIUM')
cons26 bought Coffee(name='Ethiopia', price=10, acidity=5.09, roast_level='MEDIUM')
cons26 bought Coffee(name='Ethiopia', price=10, acidity=5.09, roast_level='MEDIUM')
cons26 bought Coffee(name='Brasil', price=7, acidity=5.09, roast_level='MEDIUM')
cons26 bought Coffee(name='Brasil', price=7, acidity=5.09, roast_level='MEDIUM')
cons26 bought Coffee(name='Brasil', price=7, acidity=5.09, roast_level='MEDIUM')
cons26 bought Coffee(name='Brasil', price=7, acidity=5.09, roast_level='MEDIUM')
cons26 bought Coffee(name='Brasil', price=7, acidity=5.09, roast_level='MEDIUM')
cons41 bought Coffee(name='Indonezia', price=1, acidity=5.05, roast_level='MEDIUM')
cons41 bought Tea(name='Wild Cherry', price=4, type='Black')
cons41 bought Tea(name='Wild Cherry', price=4, type='Black')
cons41 bought Tea(name='Wild Cherry', price=4, type='Black')
cons41 bought Tea(name='Wild Cherry', price=4, type='Black')
cons41 bought Coffee(name='Brasil', price=7, acidity=5.09, roast_level='MEDIUM')
cons41 bought Coffee(name='Brasil', price=7, acidity=5.09, roast_level='MEDIUM')
cons41 bought Coffee(name='Indonezia', price=1, acidity=5.05, roast_level='MEDIUM')
cons41 bought Coffee(name='Indonezia', price=1, acidity=5.05, roast_level='MEDIUM')
cons41 bought Coffee(name='Indonezia', price=1, acidity=5.05, roast_level='MEDIUM')
cons41 bought Coffee(name='Indonezia', price=1, acidity=5.05, roast_level='MEDIUM')
cons41 bought Coffee(name='Indonezia', price=1, acidity=5.05, roast_level='MEDIUM')
cons41 bought Coffee(name='Ethiopia', price=10, acidity=5.09, roast_level='MEDIUM')
cons41 bought Coffee(name='Ethiopia', price=10, acidity=5.09, roast_level='MEDIUM')
cons41 bought Coffee(name='Ethiopia', price=10, acidity=5.09, roast_level='MEDIUM')
cons41 bought Tea(name='Wild Cherry', price=4, type='Black')
cons41 bought Coffee(name='Ethiopia', price=10, acidity=5.09, roast_level='MEDIUM')
cons41 bought Coffee(name='Ethiopia', price=10, acidity=5.09, roast_level='MEDIUM')
cons41 bought Coffee(name='Ethiopia', price=10, acidity=5.09, roast_level='MEDIUM')
cons41 bought Coffee(name='Ethiopia', price=10, acidity=5.09, roast_level='MEDIUM')
cons41 bought Coffee(name='Ethiopia', price=10, acidity=5.09, roast_level='MEDIUM')
cons41 bought Coffee(name='Indonezia', price=1, acidity=5.05, roast_level='MEDIUM')
cons41 bought Coffee(name='Indonezia', price=1, acidity=5.05, roast_level='MEDIUM')
cons41 bought Coffee(name='Indonezia', price=1, acidity=5.05, roast_level='MEDIUM')
cons41 bought Coffee(name='Brasil', price=7, acidity=5.09, roast_level='MEDIUM')
cons41 bought Tea(name='Cactus fig', price=3, type='Green')
cons41 bought Tea(name='Cactus fig', price=3, type='Green')
cons41 bought Tea(name='Cactus fig', price=3, type='Green')
cons41 bought Tea(name='Cactus fig', price=3, type='Green')
cons41 bought Tea(name='Cactus fig', price=3, type='Green')
cons41 bought Tea(name='Wild Cherry', price=4, type='Black')
cons41 bought Coffee(name='Ethiopia', price=10, acidity=5.09, roast_level='MEDIUM')
cons41 bought Coffee(name='Ethiopia', price=10, acidity=5.09, roast_level='MEDIUM')
cons41 bought Coffee(name='Ethiopia', price=10, acidity=5.09, roast_level='MEDIUM')
cons38 bought Tea(name='Cactus fig', price=3, type='Green')
cons38 bought Tea(name='Cactus fig', price=3, type='Green')
cons38 bought Tea(name='Cactus fig', price=3, type='Green')
cons38 bought Coffee(name='Brasil', price=7, acidity=5.09, roast_level='MEDIUM')
cons38 bought Coffee(name='Brasil', price=7, acidity=5.09, roast_level='MEDIUM')
cons38 bought Coffee(name='Indonezia', price=1, acidity=5.05, roast_level='MEDIUM')cons48 bought Coffee(name='Indonezia', price=1, acidity=5.05, roast_level='MEDIUM')
cons48 bought Coffee(name='Brasil', price=7, acidity=5.09, roast_level='MEDIUM')
cons48 bought Coffee(name='Brasil', price=7, acidity=5.09, roast_level='MEDIUM')
cons48 bought Tea(name='Wild Cherry', price=4, type='Black')
cons48 bought Tea(name='Wild Cherry', price=4, type='Black')
cons48 bought Coffee(name='Ethiopia', price=10, acidity=5.09, roast_level='MEDIUM')
cons48 bought Coffee(name='Ethiopia', price=10, acidity=5.09, roast_level='MEDIUM')
cons48 bought Tea(name='Cactus fig', price=3, type='Green')
cons48 bought Tea(name='Cactus fig', price=3, type='Green')

cons38 bought Coffee(name='Indonezia', price=1, acidity=5.05, roast_level='MEDIUM')
cons17 bought Coffee(name='Ethiopia', price=10, acidity=5.09, roast_level='MEDIUM')
cons17 bought Coffee(name='Ethiopia', price=10, acidity=5.09, roast_level='MEDIUM')
cons17 bought Coffee(name='Ethiopia', price=10, acidity=5.09, roast_level='MEDIUM')
cons17 bought Coffee(name='Ethiopia', price=10, acidity=5.09, roast_level='MEDIUM')
cons17 bought Coffee(name='Ethiopia', price=10, acidity=5.09, roast_level='MEDIUM')
cons17 bought Coffee(name='Indonezia', price=1, acidity=5.05, roast_level='MEDIUM')
cons17 bought Coffee(name='Indonezia', price=1, acidity=5.05, roast_level='MEDIUM')
cons17 bought Coffee(name='Indonezia', price=1, acidity=5.05, roast_level='MEDIUM')
cons17 bought Tea(name='Cactus fig', price=3, type='Green')
cons24 bought Tea(name='Wild Cherry', price=4, type='Black')
cons24 bought Tea(name='Cactus fig', price=3, type='Green')
cons24 bought Tea(name='Cactus fig', price=3, type='Green')
cons24 bought Coffee(name='Indonezia', price=1, acidity=5.05, roast_level='MEDIUM')
cons24 bought Coffee(name='Indonezia', price=1, acidity=5.05, roast_level='MEDIUM')
cons24 bought Tea(name='Wild Cherry', price=4, type='Black')
cons24 bought Tea(name='Wild Cherry', price=4, type='Black')
cons24 bought Tea(name='Wild Cherry', price=4, type='Black')
cons24 bought Tea(name='Wild Cherry', price=4, type='Black')
cons24 bought Tea(name='Wild Cherry', price=4, type='Black')
cons24 bought Tea(name='Wild Cherry', price=4, type='Black')
cons24 bought Coffee(name='Indonezia', price=1, acidity=5.05, roast_level='MEDIUM')
cons24 bought Coffee(name='Indonezia', price=1, acidity=5.05, roast_level='MEDIUM')
cons24 bought Coffee(name='Indonezia', price=1, acidity=5.05, roast_level='MEDIUM')
cons24 bought Coffee(name='Indonezia', price=1, acidity=5.05, roast_level='MEDIUM')
cons24 bought Coffee(name='Indonezia', price=1, acidity=5.05, roast_level='MEDIUM')
cons24 bought Coffee(name='Indonezia', price=1, acidity=5.05, roast_level='MEDIUM')
cons24 bought Tea(name='Wild Cherry', price=4, type='Black')
cons24 bought Tea(name='Wild Cherry', price=4, type='Black')
cons24 bought Tea(name='Wild Cherry', price=4, type='Black')
cons24 bought Tea(name='Wild Cherry', price=4, type='Black')
cons24 bought Tea(name='Cactus fig', price=3, type='Green')
cons24 bought Tea(name='Cactus fig', price=3, type='Green')
cons24 bought Tea(name='Cactus fig', price=3, type='Green')
cons37 bought Tea(name='Wild Cherry', price=4, type='Black')
cons37 bought Coffee(name='Indonezia', price=1, acidity=5.05, roast_level='MEDIUM')
cons37 bought Coffee(name='Indonezia', price=1, acidity=5.05, roast_level='MEDIUM')
cons37 bought Coffee(name='Ethiopia', price=10, acidity=5.09, roast_level='MEDIUM')
cons37 bought Tea(name='Wild Cherry', price=4, type='Black')
cons37 bought Tea(name='Wild Cherry', price=4, type='Black')
cons37 bought Coffee(name='Brasil', price=7, acidity=5.09, roast_level='MEDIUM')
cons43 bought Coffee(name='Ethiopia', price=10, acidity=5.09, roast_level='MEDIUM')
cons43 bought Coffee(name='Ethiopia', price=10, acidity=5.09, roast_level='MEDIUM')
cons43 bought Coffee(name='Ethiopia', price=10, acidity=5.09, roast_level='MEDIUM')
cons43 bought Coffee(name='Ethiopia', price=10, acidity=5.09, roast_level='MEDIUM')
cons43 bought Coffee(name='Ethiopia', price=10, acidity=5.09, roast_level='MEDIUM')
cons43 bought Coffee(name='Brasil', price=7, acidity=5.09, roast_level='MEDIUM')
cons43 bought Coffee(name='Brasil', price=7, acidity=5.09, roast_level='MEDIUM')
cons43 bought Coffee(name='Brasil', price=7, acidity=5.09, roast_level='MEDIUM')
cons43 bought Coffee(name='Brasil', price=7, acidity=5.09, roast_level='MEDIUM')
cons43 bought Coffee(name='Indonezia', price=1, acidity=5.05, roast_level='MEDIUM')
cons43 bought Coffee(name='Indonezia', price=1, acidity=5.05, roast_level='MEDIUM')
cons43 bought Coffee(name='Indonezia', price=1, acidity=5.05, roast_level='MEDIUM')
cons23 bought Coffee(name='Indonezia', price=1, acidity=5.05, roast_level='MEDIUM')
cons22 bought Tea(name='Cactus fig', price=3, type='Green')
cons22 bought Tea(name='Cactus fig', price=3, type='Green')
cons22 bought Coffee(name='Ethiopia', price=10, acidity=5.09, roast_level='MEDIUM')
cons22 bought Coffee(name='Ethiopia', price=10, acidity=5.09, roast_level='MEDIUM')
cons22 bought Coffee(name='Ethiopia', price=10, acidity=5.09, roast_level='MEDIUM')
cons22 bought Coffee(name='Ethiopia', price=10, acidity=5.09, roast_level='MEDIUM')
cons20 bought Coffee(name='Indonezia', price=1, acidity=5.05, roast_level='MEDIUM')
cons20 bought Coffee(name='Indonezia', price=1, acidity=5.05, roast_level='MEDIUM')
cons28 bought Tea(name='Cactus fig', price=3, type='Green')
cons28 bought Coffee(name='Indonezia', price=1, acidity=5.05, roast_level='MEDIUM')
cons28 bought Coffee(name='Indonezia', price=1, acidity=5.05, roast_level='MEDIUM')
cons28 bought Coffee(name='Indonezia', price=1, acidity=5.05, roast_level='MEDIUM')
cons28 bought Coffee(name='Indonezia', price=1, acidity=5.05, roast_level='MEDIUM')
cons28 bought Coffee(name='Indonezia', price=1, acidity=5.05, roast_level='MEDIUM')
cons28 bought Coffee(name='Indonezia', price=1, acidity=5.05, roast_level='MEDIUM')
cons28 bought Coffee(name='Indonezia', price=1, acidity=5.05, roast_level='MEDIUM')
cons28 bought Tea(name='Cactus fig', price=3, type='Green')
cons28 bought Tea(name='Cactus fig', price=3, type='Green')
cons28 bought Tea(name='Cactus fig', price=3, type='Green')
cons28 bought Coffee(name='Ethiopia', price=10, acidity=5.09, roast_level='MEDIUM')
cons28 bought Coffee(name='Ethiopia', price=10, acidity=5.09, roast_level='MEDIUM')
cons39 bought Coffee(name='Indonezia', price=1, acidity=5.05, roast_level='MEDIUM')
cons39 bought Tea(name='Wild Cherry', price=4, type='Black')
cons39 bought Tea(name='Wild Cherry', price=4, type='Black')
cons39 bought Tea(name='Wild Cherry', price=4, type='Black')
cons39 bought Tea(name='Wild Cherry', price=4, type='Black')
cons39 bought Tea(name='Wild Cherry', price=4, type='Black')
cons39 bought Coffee(name='Ethiopia', price=10, acidity=5.09, roast_level='MEDIUM')
cons39 bought Coffee(name='Ethiopia', price=10, acidity=5.09, roast_level='MEDIUM')
cons39 bought Coffee(name='Ethiopia', price=10, acidity=5.09, roast_level='MEDIUM')
cons39 bought Coffee(name='Ethiopia', price=10, acidity=5.09, roast_level='MEDIUM')
cons39 bought Coffee(name='Ethiopia', price=10, acidity=5.09, roast_level='MEDIUM')
cons39 bought Coffee(name='Ethiopia', price=10, acidity=5.09, roast_level='MEDIUM')
cons39 bought Coffee(name='Ethiopia', price=10, acidity=5.09, roast_level='MEDIUM')
cons39 bought Coffee(name='Ethiopia', price=10, acidity=5.09, roast_level='MEDIUM')
cons39 bought Tea(name='Cactus fig', price=3, type='Green')
cons42 bought Coffee(name='Indonezia', price=1, acidity=5.05, roast_level='MEDIUM')
cons42 bought Coffee(name='Indonezia', price=1, acidity=5.05, roast_level='MEDIUM')
cons42 bought Coffee(name='Indonezia', price=1, acidity=5.05, roast_level='MEDIUM')
cons42 bought Coffee(name='Indonezia', price=1, acidity=5.05, roast_level='MEDIUM')
cons47 bought Coffee(name='Indonezia', price=1, acidity=5.05, roast_level='MEDIUM')
cons47 bought Coffee(name='Indonezia', price=1, acidity=5.05, roast_level='MEDIUM')
cons47 bought Coffee(name='Indonezia', price=1, acidity=5.05, roast_level='MEDIUM')
cons47 bought Coffee(name='Indonezia', price=1, acidity=5.05, roast_level='MEDIUM')
cons47 bought Coffee(name='Ethiopia', price=10, acidity=5.09, roast_level='MEDIUM')cons28 bought Coffee(name='Ethiopia', price=10, acidity=5.09, roast_level='MEDIUM')
cons28 bought Coffee(name='Ethiopia', price=10, acidity=5.09, roast_level='MEDIUM')

cons47 bought Tea(name='Cactus fig', price=3, type='Green')
cons47 bought Tea(name='Cactus fig', price=3, type='Green')
cons47 bought Tea(name='Cactus fig', price=3, type='Green')
cons47 bought Tea(name='Cactus fig', price=3, type='Green')
cons47 bought Tea(name='Cactus fig', price=3, type='Green')
cons47 bought Tea(name='Cactus fig', price=3, type='Green')
cons47 bought Tea(name='Cactus fig', price=3, type='Green')
cons47 bought Tea(name='Cactus fig', price=3, type='Green')
cons47 bought Coffee(name='Ethiopia', price=10, acidity=5.09, roast_level='MEDIUM')
cons47 bought Coffee(name='Ethiopia', price=10, acidity=5.09, roast_level='MEDIUM')
cons47 bought Coffee(name='Ethiopia', price=10, acidity=5.09, roast_level='MEDIUM')
cons47 bought Coffee(name='Ethiopia', price=10, acidity=5.09, roast_level='MEDIUM')
cons47 bought Coffee(name='Indonezia', price=1, acidity=5.05, roast_level='MEDIUM')
cons47 bought Coffee(name='Indonezia', price=1, acidity=5.05, roast_level='MEDIUM')
cons47 bought Coffee(name='Indonezia', price=1, acidity=5.05, roast_level='MEDIUM')
cons47 bought Coffee(name='Indonezia', price=1, acidity=5.05, roast_level='MEDIUM')
cons47 bought Coffee(name='Indonezia', price=1, acidity=5.05, roast_level='MEDIUM')
cons47 bought Coffee(name='Brasil', price=7, acidity=5.09, roast_level='MEDIUM')
cons47 bought Coffee(name='Brasil', price=7, acidity=5.09, roast_level='MEDIUM')
cons31 bought Tea(name='Wild Cherry', price=4, type='Black')
cons31 bought Tea(name='Wild Cherry', price=4, type='Black')
cons31 bought Tea(name='Wild Cherry', price=4, type='Black')
cons31 bought Tea(name='Wild Cherry', price=4, type='Black')
cons31 bought Coffee(name='Ethiopia', price=10, acidity=5.09, roast_level='MEDIUM')
cons31 bought Coffee(name='Ethiopia', price=10, acidity=5.09, roast_level='MEDIUM')
cons31 bought Coffee(name='Ethiopia', price=10, acidity=5.09, roast_level='MEDIUM')
cons27 bought Coffee(name='Indonezia', price=1, acidity=5.05, roast_level='MEDIUM')
cons27 bought Coffee(name='Indonezia', price=1, acidity=5.05, roast_level='MEDIUM')
cons27 bought Coffee(name='Ethiopia', price=10, acidity=5.09, roast_level='MEDIUM')
cons27 bought Coffee(name='Ethiopia', price=10, acidity=5.09, roast_level='MEDIUM')
cons27 bought Coffee(name='Ethiopia', price=10, acidity=5.09, roast_level='MEDIUM')
cons27 bought Coffee(name='Ethiopia', price=10, acidity=5.09, roast_level='MEDIUM')
cons27 bought Tea(name='Cactus fig', price=3, type='Green')
cons27 bought Tea(name='Cactus fig', price=3, type='Green')
cons27 bought Tea(name='Cactus fig', price=3, type='Green')
cons27 bought Tea(name='Cactus fig', price=3, type='Green')
cons27 bought Tea(name='Wild Cherry', price=4, type='Black')
cons27 bought Tea(name='Wild Cherry', price=4, type='Black')
cons27 bought Tea(name='Wild Cherry', price=4, type='Black')
cons27 bought Tea(name='Wild Cherry', price=4, type='Black')
cons27 bought Coffee(name='Ethiopia', price=10, acidity=5.09, roast_level='MEDIUM')
cons27 bought Coffee(name='Indonezia', price=1, acidity=5.05, roast_level='MEDIUM')
cons27 bought Coffee(name='Indonezia', price=1, acidity=5.05, roast_level='MEDIUM')
cons27 bought Coffee(name='Indonezia', price=1, acidity=5.05, roast_level='MEDIUM')
cons27 bought Coffee(name='Indonezia', price=1, acidity=5.05, roast_level='MEDIUM')
cons27 bought Coffee(name='Indonezia', price=1, acidity=5.05, roast_level='MEDIUM')
cons36 bought Coffee(name='Ethiopia', price=10, acidity=5.09, roast_level='MEDIUM')
cons36 bought Coffee(name='Ethiopia', price=10, acidity=5.09, roast_level='MEDIUM')
cons36 bought Coffee(name='Ethiopia', price=10, acidity=5.09, roast_level='MEDIUM')
cons36 bought Tea(name='Cactus fig', price=3, type='Green')
cons36 bought Tea(name='Cactus fig', price=3, type='Green')
cons36 bought Coffee(name='Indonezia', price=1, acidity=5.05, roast_level='MEDIUM')
cons36 bought Coffee(name='Brasil', price=7, acidity=5.09, roast_level='MEDIUM')
cons36 bought Coffee(name='Brasil', price=7, acidity=5.09, roast_level='MEDIUM')
cons36 bought Coffee(name='Brasil', price=7, acidity=5.09, roast_level='MEDIUM')
cons44 bought Tea(name='Cactus fig', price=3, type='Green')
cons44 bought Tea(name='Cactus fig', price=3, type='Green')
cons44 bought Tea(name='Cactus fig', price=3, type='Green')
cons44 bought Tea(name='Cactus fig', price=3, type='Green')
cons44 bought Tea(name='Cactus fig', price=3, type='Green')
cons44 bought Coffee(name='Indonezia', price=1, acidity=5.05, roast_level='MEDIUM')
cons44 bought Coffee(name='Indonezia', price=1, acidity=5.05, roast_level='MEDIUM')
cons44 bought Coffee(name='Ethiopia', price=10, acidity=5.09, roast_level='MEDIUM')
cons44 bought Coffee(name='Ethiopia', price=10, acidity=5.09, roast_level='MEDIUM')
cons44 bought Coffee(name='Ethiopia', price=10, acidity=5.09, roast_level='MEDIUM')
cons44 bought Coffee(name='Ethiopia', price=10, acidity=5.09, roast_level='MEDIUM')
cons50 bought Coffee(name='Brasil', price=7, acidity=5.09, roast_level='MEDIUM')
cons50 bought Coffee(name='Brasil', price=7, acidity=5.09, roast_level='MEDIUM')
cons50 bought Coffee(name='Brasil', price=7, acidity=5.09, roast_level='MEDIUM')
cons50 bought Coffee(name='Brasil', price=7, acidity=5.09, roast_level='MEDIUM')
cons50 bought Coffee(name='Brasil', price=7, acidity=5.09, roast_level='MEDIUM')
cons50 bought Coffee(name='Indonezia', price=1, acidity=5.05, roast_level='MEDIUM')
cons50 bought Coffee(name='Indonezia', price=1, acidity=5.05, roast_level='MEDIUM')
cons50 bought Coffee(name='Brasil', price=7, acidity=5.09, roast_level='MEDIUM')
cons50 bought Coffee(name='Brasil', price=7, acidity=5.09, roast_level='MEDIUM')
cons50 bought Coffee(name='Brasil', price=7, acidity=5.09, roast_level='MEDIUM')
cons50 bought Coffee(name='Brasil', price=7, acidity=5.09, roast_level='MEDIUM')
cons50 bought Coffee(name='Brasil', price=7, acidity=5.09, roast_level='MEDIUM')
cons50 bought Tea(name='Wild Cherry', price=4, type='Black')
cons34 bought Coffee(name='Brasil', price=7, acidity=5.09, roast_level='MEDIUM')
cons34 bought Coffee(name='Brasil', price=7, acidity=5.09, roast_level='MEDIUM')
cons34 bought Coffee(name='Brasil', price=7, acidity=5.09, roast_level='MEDIUM')
cons34 bought Coffee(name='Brasil', price=7, acidity=5.09, roast_level='MEDIUM')
cons34 bought Coffee(name='Brasil', price=7, acidity=5.09, roast_level='MEDIUM')
cons34 bought Tea(name='Cactus fig', price=3, type='Green')
cons34 bought Tea(name='Cactus fig', price=3, type='Green')
cons34 bought Tea(name='Cactus fig', price=3, type='Green')
cons34 bought Coffee(name='Indonezia', price=1, acidity=5.05, roast_level='MEDIUM')
cons34 bought Coffee(name='Indonezia', price=1, acidity=5.05, roast_level='MEDIUM')
cons34 bought Coffee(name='Indonezia', price=1, acidity=5.05, roast_level='MEDIUM')
cons34 bought Tea(name='Wild Cherry', price=4, type='Black')
cons34 bought Tea(name='Wild Cherry', price=4, type='Black')
cons34 bought Tea(name='Wild Cherry', price=4, type='Black')
cons34 bought Tea(name='Wild Cherry', price=4, type='Black')
cons34 bought Tea(name='Wild Cherry', price=4, type='Black')
cons34 bought Coffee(name='Ethiopia', price=10, acidity=5.09, roast_level='MEDIUM')
cons34 bought Coffee(name='Ethiopia', price=10, acidity=5.09, roast_level='MEDIUM')
cons34 bought Tea(name='Cactus fig', price=3, type='Green')
cons34 bought Tea(name='Cactus fig', price=3, type='Green')
cons34 bought Coffee(name='Brasil', price=7, acidity=5.09, roast_level='MEDIUM')
cons34 bought Coffee(name='Brasil', price=7, acidity=5.09, roast_level='MEDIUM')
cons34 bought Coffee(name='Indonezia', price=1, acidity=5.05, roast_level='MEDIUM')
cons34 bought Coffee(name='Brasil', price=7, acidity=5.09, roast_level='MEDIUM')
cons33 bought Coffee(name='Indonezia', price=1, acidity=5.05, roast_level='MEDIUM')
cons33 bought Tea(name='Cactus fig', price=3, type='Green')
cons33 bought Tea(name='Cactus fig', price=3, type='Green')
cons33 bought Tea(name='Cactus fig', price=3, type='Green')
cons23 bought Tea(name='Wild Cherry', price=4, type='Black')
cons23 bought Tea(name='Wild Cherry', price=4, type='Black')
cons23 bought Tea(name='Wild Cherry', price=4, type='Black')
cons23 bought Tea(name='Wild Cherry', price=4, type='Black')
cons23 bought Tea(name='Wild Cherry', price=4, type='Black')
cons23 bought Tea(name='Wild Cherry', price=4, type='Black')
cons23 bought Tea(name='Wild Cherry', price=4, type='Black')
cons23 bought Tea(name='Wild Cherry', price=4, type='Black')
cons23 bought Coffee(name='Indonezia', price=1, acidity=5.05, roast_level='MEDIUM')
cons23 bought Coffee(name='Indonezia', price=1, acidity=5.05, roast_level='MEDIUM')
cons23 bought Coffee(name='Indonezia', price=1, acidity=5.05, roast_level='MEDIUM')
cons23 bought Tea(name='Wild Cherry', price=4, type='Black')
cons23 bought Tea(name='Wild Cherry', price=4, type='Black')
cons23 bought Tea(name='Wild Cherry', price=4, type='Black')
cons23 bought Tea(name='Wild Cherry', price=4, type='Black')
cons23 bought Tea(name='Wild Cherry', price=4, type='Black')
cons23 bought Tea(name='Wild Cherry', price=4, type='Black')
cons18 bought Tea(name='Cactus fig', price=3, type='Green')
cons18 bought Coffee(name='Ethiopia', price=10, acidity=5.09, roast_level='MEDIUM')
cons18 bought Coffee(name='Ethiopia', price=10, acidity=5.09, roast_level='MEDIUM')
cons18 bought Coffee(name='Ethiopia', price=10, acidity=5.09, roast_level='MEDIUM')
cons18 bought Coffee(name='Ethiopia', price=10, acidity=5.09, roast_level='MEDIUM')
cons18 bought Coffee(name='Ethiopia', price=10, acidity=5.09, roast_level='MEDIUM')
cons18 bought Tea(name='Wild Cherry', price=4, type='Black')
cons18 bought Tea(name='Wild Cherry', price=4, type='Black')
cons18 bought Tea(name='Wild Cherry', price=4, type='Black')
cons18 bought Coffee(name='Brasil', price=7, acidity=5.09, roast_level='MEDIUM')
cons18 bought Coffee(name='Brasil', price=7, acidity=5.09, roast_level='MEDIUM')
cons18 bought Coffee(name='Brasil', price=7, acidity=5.09, roast_level='MEDIUM')
cons18 bought Coffee(name='Brasil', price=7, acidity=5.09, roast_level='MEDIUM')
cons18 bought Coffee(name='Indonezia', price=1, acidity=5.05, roast_level='MEDIUM')
cons18 bought Tea(name='Cactus fig', price=3, type='Green')
cons18 bought Tea(name='Cactus fig', price=3, type='Green')
cons18 bought Tea(name='Cactus fig', price=3, type='Green')
cons18 bought Tea(name='Cactus fig', price=3, type='Green')
cons18 bought Tea(name='Cactus fig', price=3, type='Green')
cons18 bought Tea(name='Cactus fig', price=3, type='Green')
cons18 bought Tea(name='Cactus fig', price=3, type='Green')
cons18 bought Tea(name='Cactus fig', price=3, type='Green')
cons18 bought Tea(name='Cactus fig', price=3, type='Green')
cons18 bought Tea(name='Cactus fig', price=3, type='Green')
cons49 bought Tea(name='Cactus fig', price=3, type='Green')
cons49 bought Tea(name='Cactus fig', price=3, type='Green')
cons49 bought Tea(name='Cactus fig', price=3, type='Green')
cons49 bought Tea(name='Wild Cherry', price=4, type='Black')
cons49 bought Tea(name='Wild Cherry', price=4, type='Black')
cons49 bought Tea(name='Wild Cherry', price=4, type='Black')
cons49 bought Tea(name='Wild Cherry', price=4, type='Black')
cons49 bought Tea(name='Wild Cherry', price=4, type='Black')
cons49 bought Coffee(name='Indonezia', price=1, acidity=5.05, roast_level='MEDIUM')
cons19 bought Tea(name='Wild Cherry', price=4, type='Black')
cons19 bought Tea(name='Wild Cherry', price=4, type='Black')
cons19 bought Tea(name='Wild Cherry', price=4, type='Black')
cons19 bought Tea(name='Wild Cherry', price=4, type='Black')
cons19 bought Tea(name='Wild Cherry', price=4, type='Black')
cons19 bought Tea(name='Wild Cherry', price=4, type='Black')
cons19 bought Coffee(name='Indonezia', price=1, acidity=5.05, roast_level='MEDIUM')
cons19 bought Coffee(name='Ethiopia', price=10, acidity=5.09, roast_level='MEDIUM')
